…
``` r
cavity_plot(data = flicker, sun = s, start = "2011-06-17", days = 1)
```

<img src="tools/readme/unnamed-chunk-6-1.png" width="100%" />

Using these detected times, assign the rest of the light data to bouts of cavity use:

``` r
e <- cavity_detect(flicker, sun = s)
e
```

    ## # A tibble: 213 x 9
    ##    date       start               end                 length_hrs location
    ##    <date>     <dttm>              <dttm>                   <dbl> <chr>   
    ##  1 2011-06-17 2011-06-17 00:00:50 2011-06-17 03:38:50      3.63  out     
    ##  2 2011-06-17 2011-06-17 03:40:50 2011-06-17 04:04:50      0.4   out     
    ##  3 2011-06-17 2011-06-17 04:06:50 2011-06-17 04:06:50      0     out_amb…
    ##  4 2011-06-17 2011-06-17 04:08:50 2011-06-17 04:08:50      0     ambig   
    ##  5 2011-06-17 2011-06-17 04:10:50 2011-06-17 05:06:50      0.933 out     
    ##  6 2011-06-17 2011-06-17 05:08:50 2011-06-17 05:08:50      0     ambig   
    ##  7 2011-06-17 2011-06-17 05:10:50 2011-06-17 07:00:50      1.83  in      
    ##  8 2011-06-17 2011-06-17 07:02:50 2011-06-17 08:14:50      1.2   out     
    ##  9 2011-06-17 2011-06-17 08:16:50 2011-06-17 09:10:50      0.9   in      
    ## 10 2011-06-17 2011-06-17 09:12:50 2011-06-17 09:48:50      0.6   out     
    ## # ... with 203 more rows, and 4 more variables: thresh_dark <dbl>,
    ## #   thresh_light <dbl>, ambig_dark <dbl>, ambig_light <dbl>
…
<img src="tools/readme/unnamed-chunk-8-1.png" width="100%" />

With your own data
------------------

You data must be in a data frame with the columns called `time` and `light`.

-   `time` must be in a `date/time` format
-   `light` must be a number, representing light levels in lux (low = dark, high = light)

For example:

    ## # A tibble: 3,600 x 2
    ##    time                light
    ##    <dttm>              <dbl>
    ##  1 2011-06-17 00:00:50     0
    ##  2 2011-06-17 00:02:50     0
    ##  3 2011-06-17 00:04:50     0
    ##  4 2011-06-17 00:06:50     0
    ##  5 2011-06-17 00:08:50     0
    ##  6 2011-06-17 00:10:50     0
    ##  7 2011-06-17 00:12:50     0
    ##  8 2011-06-17 00:14:50     0
    ##  9 2011-06-17 00:16:50     0
    ## 10 2011-06-17 00:18:50     0
    ## # ... with 3,590 more rows
…
### Coordinates

`cavityuse` functions require coordinates in order to more efficiently detect sunrise/sunset times, but also to estimate sunrise/sunset when they are not detected in the data.

You can supply coordinates in one of two ways.

-   You can have `lon` and `lat` columns, indicating the decimal coordinates for your location either in your data

<!-- -->

    ## # A tibble: 3,600 x 4
    ##    time                light   lon   lat
    ##    <dttm>              <dbl> <dbl> <dbl>
    ##  1 2011-06-17 00:00:50     0 -120.  50.7
    ##  2 2011-06-17 00:02:50     0 -120.  50.7
    ##  3 2011-06-17 00:04:50     0 -120.  50.7
    ##  4 2011-06-17 00:06:50     0 -120.  50.7
    ##  5 2011-06-17 00:08:50     0 -120.  50.7
    ##  6 2011-06-17 00:10:50     0 -120.  50.7
    ##  7 2011-06-17 00:12:50     0 -120.  50.7
    ##  8 2011-06-17 00:14:50     0 -120.  50.7
    ##  9 2011-06-17 00:16:50     0 -120.  50.7
    ## 10 2011-06-17 00:18:50     0 -120.  50.7
    ## # ... with 3,590 more rows
…
